MGI Marker Symbol and Identifiers • mgi.20240527
…
Note that the authors of this package are not affiliated with the original MGI data providers.

Installation

# install.packages("pak")
pak::pak("patterninstitute/mgi.20240527")

MGI gene markers

The list of gene markers returned by the function markers() corresponds to those for which an associated gene model existed as of 27 May 2024.

library(mgi.20240527)

markers()
#> # A tibble: 71,489 × 15
#>    mrk_id mrk_type mrk_symbol mrk_name genome_build entrez_gene_id ncbi_gene_chr
#>    <chr>  <chr>    <chr>      <chr>    <chr>        <chr>          <chr>        
#>  1 MGI:8… Gene     a          nonagou… GRCm39       50518          2            
#>  2 MGI:8… Gene     Pzp        PZP, al… GRCm39       11287          6            
#>  3 MGI:8… Gene     Abl1       c-abl o… GRCm39       11350          2            
#>  4 MGI:8… Gene     Abl2       ABL pro… GRCm39       11352          1            
#>  5 MGI:8… Gene     Scgb1b27   secreto… GRCm39       11354          7            
#>  6 MGI:8… Gene     Scgb2b27   secreto… GRCm39       233099         7            
#>  7 MGI:8… Gene     Scgb2b26   secreto… GRCm39       110187         7            
#>  8 MGI:8… Gene     Acadl      acyl-Co… GRCm39       11363          1            
#>  9 MGI:8… Gene     Acadm      acyl-Co… GRCm39       11364          3            
#> 10 MGI:8… Gene     Acads      acyl-Co… GRCm39       11409          5            
#> # ℹ 71,479 more rows
#> # ℹ 8 more variables: ncbi_gene_start <int>, ncbi_gene_end <int>,
#> #   ncbi_gene_strand <chr>, ensembl_gene_id <chr>, ensembl_gene_chr <chr>,
#> #   ensembl_gene_start <int>, ensembl_gene_end <int>, ensembl_gene_strand <chr>
…
